CA0306
  Attempt the following
1]  Variation - 2M, Transform into mathematical form.art : 1
2]  Variation - 2M, Find the value of.art : 5
3]  Variation - 2M, Relation of variation.art : 1
4]  Variation - 2M, Complete the table.art : 4
5]  Variation - 2M, Find the value of.art : 4
6]  Variation - 2M, Complete the table.art : 7
  Attempt the following
1]  Variation - 3M, Word problems.art : 7
2]  Variation - 3M, Find the value of.art : 1
